module gitea.com/lunny/dreamjson

go 1.15

require (
	github.com/alecthomas/assert v0.0.0-20170929043011-405dbfeb8e38
	github.com/alecthomas/colour v0.1.0 // indirect
	github.com/alecthomas/repr v0.0.0-20201120212035-bb82daffcca2 // indirect
	github.com/mattn/go-isatty v0.0.12 // indirect
	github.com/sergi/go-diff v1.1.0 // indirect
	github.com/stretchr/testify v1.4.0
)
